digraph {
# Aggregates
	node [color=green, style=filled];
	A1 [ label=Catalogus ];
	A2 [ label=Winkelmandje ];
	A3 [ label=Verzending ];
	A4 [ label=Betaling ];
	A5 [ label=Voorraad ];
	A6 [ label=Akkoordering ];
	A7 [ label=Prijsstelling ];

# Events
	node [color=orange, style=filled];
	E1 [ label="Produkt niet aan winkelmand toegevoegd" ];
	E2 [ label="Produkt aan winkelmand toegevoegd" ];
	E3 [ label="Bestelling geplaatst" ];
	E4 [ label="Verzendadres bekend" ];
	E5 [ label="Verzendkosten bekend" ];
	E6 [ label="Betaling verzocht" ];
	E7 [ label="Betaling geslaagd" ];
	E8 [ label="Bestelling is gereserveerd" ];
	E9 [ label="Voorraadstatus produkt gewijzigd" ];
	E10 [ label="Bestelling niet voorradig" ];
	E11 [ label="Bestelling mag verzonden worden" ];

# Queries
	node [color=lightblue, style=filled];
	Q1 [ label="Zoek artikelen" ];
	Q2 [ label="Toon produkt Details" ];
	Q3 [ label="Toon winkelmand" ];
	Q4 [ label="Toon levertijd" ];

# Commands
	node [color=blue, style=filled];
	C1 [ label="Voeg produkt toe aan winkelmand" ];
	C2 [ label="Bestel inhoud winkelmand" ];
	C3 [ label="Verzendadres" ];
	C4 [ label="Selecteer betaalmethode" ];
	C5 [ label="Betaal" ];

# Commands and Queries to Aggregates
	{ Q1, Q2 } -> A1;
	{ Q3, C1, C2 } -> A2;
	{ C3, Q4 } -> A3;
	{ C4, C5 } -> A4;

# Events to Aggregates
	E1 -> { };
	E2 -> { };
	E3 -> { A3, A4, A5, A6 };
	E4 -> { };
	E5 -> { A4 };
	E6 -> { };
	E7 -> { A6 };
	E8 -> { A2 };
	E9 -> { A1 };
	E10 -> { A2, A6 };
	E11 -> { A2, A5 };


# Aggregates generate events
	A1 -> { };
	A2 -> { E1, E2, E3 };
	A3 -> { E4, E5 };
	A4 -> { E6, E7 };
	A5 -> { E8, E9, E10 };
	A6 -> { E11 };
	A7 -> {};

}

